<svg id="file_4_" data-name="file (4)" xmlns="http://www.w3.org/2000/svg" width="37" height="53.65" viewBox="0 0 37 53.65">
  <path id="Path_55962" data-name="Path 55962" d="M37,50.875H0V0H28.675L37,8.325Zm0,0" fill="#e3e4d8"/>
  <path id="Path_55963" data-name="Path 55963" d="M61.793,114.758h24.05v20.35H61.793Zm0,0" transform="translate(-55.318 -102.733)" fill="#fff"/>
  <path id="Path_55964" data-name="Path 55964" d="M273.656,0V8.325h8.325Zm0,0" transform="translate(-244.981)" fill="#d0cebd"/>
  <path id="Path_55965" data-name="Path 55965" d="M0,353.1H37v16.65H0Zm0,0" transform="translate(0 -316.102)" fill="#b53438"/>
  <path id="Path_55966" data-name="Path 55966" d="M77.783,203.035l-5.6,5.877-2.332-2.177-8.06,7.4h24.05V211.36Zm0,0" transform="translate(-55.318 -181.76)" fill="#b53438"/>
  <path id="Path_55967" data-name="Path 55967" d="M101.727,152.383a2.313,2.313,0,1,1-2.313-2.312A2.313,2.313,0,0,1,101.727,152.383Zm0,0" transform="translate(-86.927 -134.345)" fill="#eacd3b"/>
  <g id="Group_73487" data-name="Group 73487" transform="translate(4.625 39.775)">
    <path id="Path_55968" data-name="Path 55968" d="M242.965,390.686h-1.839a2.786,2.786,0,0,1-2.783-2.783V382.37a2.787,2.787,0,0,1,2.783-2.783h3.692a.925.925,0,1,1,0,1.85h-3.692a.934.934,0,0,0-.933.933V387.9a.934.934,0,0,0,.933.934h1.839a.929.929,0,0,0,.928-.928v-2.772a.925.925,0,0,1,1.85,0v2.772a2.781,2.781,0,0,1-2.778,2.778Zm0,0" transform="translate(-217.993 -379.586)" fill="#fff"/>
    <path id="Path_55969" data-name="Path 55969" d="M276.431,425.573h-1.85a.925.925,0,1,1,0-1.85h1.85a.925.925,0,0,1,0,1.85Zm0,0" transform="translate(-249.606 -419.098)" fill="#fff"/>
    <path id="Path_55970" data-name="Path 55970" d="M142.167,390.686a.925.925,0,0,1-.925-.925v-9.25a.925.925,0,0,1,1.85,0v9.25A.925.925,0,0,1,142.167,390.686Zm0,0" transform="translate(-131.067 -379.586)" fill="#fff"/>
    <path id="Path_55971" data-name="Path 55971" d="M144.942,386.986h-2.775a.925.925,0,0,1-.925-.925v-5.55a.925.925,0,0,1,.925-.925h2.775a3.7,3.7,0,1,1,0,7.4Zm-1.85-1.85h1.85a1.85,1.85,0,1,0,0-3.7h-1.85Zm0,0" transform="translate(-131.067 -379.586)" fill="#fff"/>
    <path id="Path_55972" data-name="Path 55972" d="M47.837,390.686a3.7,3.7,0,0,1-3.7-3.7.925.925,0,0,1,1.85,0,1.85,1.85,0,1,0,3.7,0v-6.475a.925.925,0,0,1,1.85,0v6.475A3.7,3.7,0,0,1,47.837,390.686Zm0,0" transform="translate(-44.137 -379.586)" fill="#fff"/>
  </g>
</svg>
